# wavelength (nm), avg gamma_M perp, avg gamma_M parallel
1 326.26 326.17
1.79 326.06 325.78
2.58 325.75 325.16
3.37 325.32 324.33
4.16 324.78 323.27
4.95 324.14 322
5.74 323.38 320.51
6.53 322.51 318.81
7.32 321.53 316.9
8.11 320.44 314.78
8.9 319.25 312.46
9.69 317.94 309.93
10.48 316.54 307.21
11.27 315.02 304.3
12.06 313.41 301.2
12.85 311.69 297.91
13.64 309.88 294.45
14.43 307.96 290.82
15.22 305.95 287.02
16.01 303.84 283.05
16.8 301.64 278.94
17.59 299.35 274.67
18.38 296.97 270.27
19.17 294.5 265.72
19.96 291.95 261.05
20.75 289.31 256.26
21.54 286.6 251.35
22.33 283.8 246.34
23.12 280.93 241.23
23.91 277.99 236.02
24.7 274.97 230.74
25.49 271.89 225.37
26.28 268.74 219.94
27.07 265.52 214.45
27.86 262.25 208.9
28.65 258.91 203.31
29.44 255.52 197.68
30.23 252.08 192.03
31.02 248.59 186.35
31.81 245.05 180.66
32.6 241.47 174.96
33.39 237.85 169.27
34.18 234.18 163.58
34.97 230.48 157.92
35.76 226.75 152.28
36.55 222.99 146.67
37.34 219.2 141.1
38.13 215.38 135.57
38.92 211.55 130.1
39.71 207.69 124.69
40.5 203.82 119.34
41.29 199.94 114.07
42.08 196.04 108.87
42.87 192.14 103.76
43.66 188.23 98.742
44.45 184.33 93.817
45.24 180.42 88.992
46.03 176.51 84.272
46.82 172.61 79.663
47.61 168.72 75.168
48.4 164.84 70.791
49.19 160.97 66.536
49.98 157.12 62.407
50.77 153.29 58.408
51.56 149.48 54.54
52.35 145.69 50.807
53.14 141.92 47.211
53.93 138.18 43.754
54.72 134.48 40.439
55.51 130.8 37.265
56.3 127.16 34.236
57.09 123.55 31.351
57.88 119.98 28.611
58.67 116.44 26.017
59.46 112.95 23.569
60.25 109.51 21.266
61.04 106.1 19.109
61.83 102.74 17.095
62.62 99.43 15.225
63.41 96.167 13.497
64.2 92.953 11.909
64.99 89.791 10.459
65.78 86.68 9.1463
66.57 83.623 7.9678
67.36 80.62 6.9212
68.15 77.672 6.0037
68.94 74.781 5.2124
69.73 71.946 4.5443
70.52 69.169 3.9961
71.31 66.45 3.5643
72.1 63.79 3.2453
72.89 61.19 3.0353
73.68 58.649 2.9304
74.47 56.169 2.9265
75.26 53.749 3.0194
76.05 51.39 3.2049
76.84 49.091 3.4786
77.63 46.854 3.836
78.42 44.678 4.2725
79.21 42.562 4.7834
80 40.508 5.3642
81 38.043 5.0716
81.79 36.226 4.8583
82.58 34.516 4.6595
83.37 32.904 4.4741
84.16 31.385 4.3009
84.95 29.952 4.1392
85.74 28.599 3.988
86.53 27.321 3.8465
87.32 26.114 3.714
88.11 24.972 3.5899
88.9 23.892 3.4735
89.69 22.869 3.3643
90.48 21.9 3.2618
91.27 20.982 3.1654
92.06 20.111 3.0749
92.85 19.285 2.9896
93.64 18.5 2.9094
94.43 17.755 2.8338
95.22 17.047 2.7626
96.01 16.374 2.6954
96.8 15.734 2.632
97.59 15.125 2.5721
98.38 14.545 2.5155
99.17 13.992 2.462
99.96 13.466 2.4113
100.75 12.964 2.3634
101.54 12.485 2.318
102.33 12.029 2.275
103.12 11.593 2.2342
103.91 11.176 2.1955
104.7 10.779 2.1588
105.49 10.399 2.1239
106.28 10.035 2.0907
107.07 9.6878 2.0592
107.86 9.3552 2.0292
108.65 9.037 2.0007
109.44 8.7323 1.9736
110.23 8.4404 1.9477
111.02 8.1608 1.923
111.81 7.8928 1.8995
112.6 7.6358 1.8771
113.39 7.3894 1.8558
114.18 7.1529 1.8353
114.97 6.926 1.8159
115.76 6.7082 1.7972
116.55 6.4991 1.7794
117.34 6.2982 1.7624
118.13 6.1052 1.7462
118.92 5.9197 1.7306
119.71 5.7413 1.7157
120.5 5.5699 1.7014
121.29 5.4049 1.6878
122.08 5.2462 1.6747
122.87 5.0935 1.6622
123.66 4.9465 1.6501
124.45 4.805 1.6386
125.24 4.6686 1.6276
126.03 4.5373 1.6169
126.82 4.4108 1.6068
127.61 4.2889 1.597
128.4 4.1714 1.5876
129.19 4.0581 1.5786
129.98 3.9488 1.5699
130.77 3.8434 1.5616
131.56 3.7418 1.5536
132.35 3.6436 1.546
133.14 3.549 1.5386
133.93 3.4576 1.5315
134.72 3.3694 1.5246
135.51 3.2842 1.518
136.3 3.2019 1.5117
137.09 3.1224 1.5056
137.88 3.0456 1.4998
138.67 2.9714 1.4941
139.46 2.8997 1.4887
140.25 2.8304 1.4834
141.04 2.7635 1.4784
141.83 2.6987 1.4735
142.62 2.6361 1.4688
143.41 2.5755 1.4643
144.2 2.5169 1.46
144.99 2.4603 1.4558
145.78 2.4055 1.4517
146.57 2.3524 1.4478
147.36 2.3011 1.444
148.15 2.2515 1.4404
148.94 2.2034 1.4369
149.73 2.1569 1.4335
150.52 2.1119 1.4302
151.31 2.0683 1.427
152.1 2.0261 1.424
152.89 1.9852 1.421
153.68 1.9456 1.4182
154.47 1.9073 1.4154
155.26 1.8702 1.4127
156.05 1.8342 1.4101
156.84 1.7994 1.4076
157.63 1.7657 1.4052
158.42 1.733 1.4029
159.21 1.7014 1.4006
160 1.6707 1.3984
